<svg xmlns="http://www.w3.org/2000/svg" width="463" height="79" viewBox="0 0 463 79">
  <metadata><?xpacket begin="﻿" id="W5M0MpCehiHzreSzNTczkc9d"?>
<x:xmpmeta xmlns:x="adobe:ns:meta/" x:xmptk="Adobe XMP Core 5.6-c138 79.159824, 2016/09/14-01:09:01        ">
   <rdf:RDF xmlns:rdf="http://www.w3.org/1999/02/22-rdf-syntax-ns#">
      <rdf:Description rdf:about=""/>
   </rdf:RDF>
</x:xmpmeta>
                                                                                                    
                                                                                                    
                                                                                                    
                                                                                                    
                                                                                                    
                                                                                                    
                                                                                                    
                                                                                                    
                                                                                                    
                                                                                                    
                                                                                                    
                                                                                                    
                                                                                                    
                                                                                                    
                                                                                                    
                                                                                                    
                                                                                                    
                                                                                                    
                                                                                                    
                                                                                                    
                           
<?xpacket end="w"?></metadata>
<defs>
    <style>
      .cls-1 {
        fill: #f0828b;
        fill-rule: evenodd;
      }
    </style>
  </defs>
  <path id="シェイプ_1" data-name="シェイプ 1" class="cls-1" d="M91.569,11c4.555,0,11.211,1.81,11.211,4.777a7.658,7.658,0,0,1-2,4.024h-0.3A12.274,12.274,0,0,0,90.319,13.82c-5.556,0-10.71,4.677-10.71,14.333,0,7.645,4.1,15.138,12.41,15.138a17.467,17.467,0,0,0,11.411-4.124l0.151,0.15c-0.951,4.527-6.457,8.4-12.863,8.4-11.86,0-17.264-8.4-17.264-17.15C73.454,20.76,80.159,11,91.569,11ZM106.28,46.71s1.4-1.056,3.252-6.286L119.992,11.1s5.1,0.2,6.856,6.085c1.9,6.336,6.356,19.864,8.859,25.447,1.4,3.169,1.7,3.772,2.3,4.073v0.252a16.648,16.648,0,0,1-3.652.5c-2.2,0-4-.855-4.6-3.018-0.652-2.263-1.6-5.532-2.8-9.2-1.551-.05-3.3-0.1-5-0.1-2.553,0-5.1.1-7.207,0.2-3,9.153-2.751,12.12-6.657,12.12a4.6,4.6,0,0,1-1.8-.5V46.71Zm14.612-14.03c1.753,0,3.5-.05,5.155-0.1-1.8-5.331-3.752-11.015-5.355-15.138h-0.25c-2.152,6.236-3.653,11.164-4.9,15.138C117.139,32.629,118.99,32.679,120.892,32.679Zm22.768,0.352c0-4.174-.1-12.774-0.251-15.993-0.25-4.878-.5-5.38-0.5-5.38s1.953,0.1,4,.1h6.207c8.657,0,12.962,4.023,12.962,9.052a9.821,9.821,0,0,1-8.108,10.108V31.17s8.458,12.674,12.66,15.087v0.352a29.217,29.217,0,0,1-4.4.654c-7.908,0-11.76-15.188-16.116-16.445l-0.7-.2c0,1.207.25,7.9,0.25,13.428,0,2.716-1.5,3.42-3.252,3.42a23.206,23.206,0,0,1-3.4-.5S143.66,45.553,143.66,33.031Zm10.058-4.275c3.553,0,6.457-1.811,6.457-6.89,0-4.023-2.354-7.443-9.008-7.443h-1.552c-0.15,4.224-.2,10.058-0.2,13.78A12.828,12.828,0,0,0,153.718,28.757Zm22.866,4.275c0-3.017-.2-13.578-0.3-15.993-0.251-4.878-.5-5.28-0.5-5.28h9.209a85.941,85.941,0,0,0,11.058-.5c-0.3,2.465-.45,4.174-4.052,4.174a47.463,47.463,0,0,1-9.508-.8c0,2.061-.051,7.393-0.1,12.371H190.1a6.573,6.573,0,0,0,2.952-.5c-0.1,2.363-.4,3.721-3,3.721s-7.707-.3-7.707-0.3v5.231c0,2.715.151,5.43,0.2,8.5l9.158-.252c3.254-.1,5.455-0.452,6.707-1.106,0.049,0.552.049,1.006,0.049,1.408,0,3.218-1.1,3.52-4.754,3.52l-17.666-.252S176.584,45.553,176.584,33.031Zm29.123,0c0-3.017-.2-13.578-0.3-15.993-0.25-4.878-.5-5.28-0.5-5.28h9.21a85.941,85.941,0,0,0,11.058-.5c-0.3,2.465-.45,4.174-4.054,4.174a47.458,47.458,0,0,1-9.507-.8c0,2.061-.05,7.393-0.1,12.371h7.707a6.573,6.573,0,0,0,2.952-.5c-0.1,2.363-.4,3.721-3,3.721s-7.707-.3-7.707-0.3v5.231c0,2.715.15,5.43,0.2,8.5l9.159-.252c3.254-.1,5.455-0.452,6.705-1.106,0.051,0.552.051,1.006,0.051,1.408,0,3.218-1.1,3.52-4.755,3.52l-17.665-.252S205.707,45.553,205.707,33.031Zm29.074,0c0-4.174-.1-12.774-0.251-15.993-0.25-4.878-.5-5.38-0.5-5.38s1.953,0.1,4,.1h6.206c8.658,0,12.962,4.023,12.962,9.052a9.821,9.821,0,0,1-8.108,10.108V31.17s8.459,12.674,12.661,15.087v0.352a29.217,29.217,0,0,1-4.4.654c-7.908,0-11.761-15.188-16.116-16.445l-0.7-.2c0,1.207.25,7.9,0.25,13.428,0,2.716-1.5,3.42-3.252,3.42a23.206,23.206,0,0,1-3.4-.5S234.781,45.553,234.781,33.031Zm10.058-4.275c3.553,0,6.457-1.811,6.457-6.89,0-4.023-2.354-7.443-9.008-7.443h-1.552c-0.15,4.224-.2,10.058-0.2,13.78A12.824,12.824,0,0,0,244.839,28.757ZM277.914,39.87h0.35a14.826,14.826,0,0,0,10.661,4.678c4.9,0,6.555-2.615,6.555-5.331,0-7.946-17.965-6.889-17.965-17.9,0-6.639,6.2-10.309,12.51-10.309,2.7,0,9.959,1.006,9.959,3.821a6.47,6.47,0,0,1-1.951,4.074h-0.35s-3.354-5.18-8.709-5.18a5.579,5.579,0,0,0-5.856,5.632c0,7.846,17.967,6.136,17.967,17.7,0,6.99-6.556,10.662-12.862,10.662-4.254,0-11.51-1.711-11.51-4.879A7.6,7.6,0,0,1,277.914,39.87Zm37.931-11.415c0-4.174-.1-8.148-0.251-11.366-0.048-.7-0.1-1.307-0.1-1.81-3.2-.05-4.4-0.05-5.2-0.05a40.891,40.891,0,0,0-5.805.452,17.883,17.883,0,0,1-.15-2.011c0-1.005.2-2.163,1.15-2.163,0,0,16.817.252,21.87,0.252a32.064,32.064,0,0,0,5.455-.5,18.35,18.35,0,0,1,.2,2.515c0,1.107-.4,1.659-0.951,1.659,0,0-4.755-.05-10.258-0.1-0.051,4.074-.2,7.845-0.2,11.768a156.292,156.292,0,0,0,.849,19.864,22.535,22.535,0,0,1-3.351.5c-1.753,0-3.254-.7-3.254-3.42V28.455Zm23.167,4.576c0-3.017-.2-13.578-0.3-15.993-0.251-4.878-.5-5.28-0.5-5.28h9.209a85.97,85.97,0,0,0,11.059-.5c-0.3,2.465-.45,4.174-4.055,4.174a47.452,47.452,0,0,1-9.506-.8c0,2.061-.051,7.393-0.1,12.371h7.707a6.573,6.573,0,0,0,2.952-.5c-0.1,2.363-.4,3.721-3,3.721s-7.707-.3-7.707-0.3v5.231c0,2.715.151,5.43,0.2,8.5l9.158-.252c3.254-.1,5.455-0.452,6.705-1.106,0.051,0.552.051,1.006,0.051,1.408,0,3.218-1.1,3.52-4.754,3.52l-17.666-.252S339.012,45.553,339.012,33.031Zm28.923-4.576c0-4.174-.1-8.2-0.25-11.416-0.251-4.878-.5-5.431-0.5-5.431s1.9,0.151,3.1.151h7.106c9.11,0,13.113,5.13,13.113,10.259,0,7.543-7.257,11.415-14.064,11.415a15.977,15.977,0,0,1-2.7-.2,116.35,116.35,0,0,0,.8,13.728,22.516,22.516,0,0,1-3.351.5c-1.753,0-3.254-.7-3.254-3.42V28.455Zm7.507,2.515a8.392,8.392,0,0,0,8.809-8.5c0-4.074-2.8-8.046-8.809-8.046h-1.551s-0.2,8.5-.2,12.674v3.771A10.44,10.44,0,0,0,375.442,30.97ZM442,67.993H33.341A8.36,8.36,0,0,1,25,59.612H433.659A8.361,8.361,0,0,1,442,67.993h0Z" transform="translate(-2)"/>
</svg>
